[{"line":4,"elements":[{"line":7,"name":"","description":"","type":"background","keyword":"Background","steps":[{"name":"url 'https:\/\/reqres.in'","result":{"duration":1970199,"status":"passed"},"match":{"location":"karate","arguments":[]},"keyword":"*","line":8,"doc_string":{"content_type":"","value":"18:45:21.228 skipping bootstrap configuration: could not find or read file: classpath:karate-config.js","line":8}},{"name":"header Content-Type = 'application\/json'","result":{"duration":1570199,"status":"passed"},"match":{"location":"karate","arguments":[]},"keyword":"*","line":9}]},{"line":11,"name":"List of All Users","description":"","id":"list-of-all-users","type":"scenario","keyword":"Scenario","steps":[{"name":"path 'api\/users?page=2'","result":{"duration":1648400,"status":"passed"},"match":{"location":"karate","arguments":[]},"keyword":"Given","line":12},{"name":"method GET","result":{"duration":1445434500,"status":"passed"},"match":{"location":"karate","arguments":[]},"keyword":"When","line":13,"doc_string":{"content_type":"","value":"18:45:22.335 request:\n1 > GET https:\/\/reqres.in\/api\/users%3Fpage=2\n1 > Accept-Encoding: gzip,deflate\n1 > Connection: Keep-Alive\n1 > Content-Type: application\/json\n1 > Host: reqres.in\n1 > User-Agent: Apache-HttpClient\/4.5.12 (Java\/1.8.0_291)\n\n18:45:22.651 response time in milliseconds: 315.08\n1 < 200\n1 < Access-Control-Allow-Origin: *\n1 < Age: 3739\n1 < CF-Cache-Status: HIT\n1 < CF-RAY: 65a16e01ae7a4acf-HYD\n1 < Cache-Control: max-age=14400\n1 < Connection: keep-alive\n1 < Content-Type: application\/json; charset=utf-8\n1 < Date: Fri, 04 Jun 2021 13:15:23 GMT\n1 < Etag: W\/\"2c1-N6Rqerxquq2kgQhL51EiSg4x0R8\"\n1 < Expect-CT: max-age=604800, report-uri=\"https:\/\/report-uri.cloudflare.com\/cdn-cgi\/beacon\/expect-ct\"\n1 < NEL: {\"report_to\":\"cf-nel\",\"max_age\":604800}\n1 < Report-To: {\"endpoints\":[{\"url\":\"https:\\\/\\\/a.nel.cloudflare.com\\\/report\\\/v2?s=skWxMLrXjmNJF6PjdIxDmjNw7MULV0oMCYpGS9vg0k0licNcUvVSI%2FKQXZApJhR6rU5q%2FhqIpbaiSJaod96AJIxHrH2LmDyP0vdngfl8pwvUfPgZzqFz\"}],\"group\":\"cf-nel\",\"max_age\":604800}\n1 < Server: cloudflare\n1 < Transfer-Encoding: chunked\n1 < Vary: Accept-Encoding\n1 < Via: 1.1 vegur\n1 < X-Powered-By: Express\n1 < alt-svc: h3-27=\":443\"; ma=86400, h3-28=\":443\"; ma=86400, h3-29=\":443\"; ma=86400, h3=\":443\"; ma=86400\n1 < cf-request-id: 0a78c3150a00004acf11a87000000001\n{\"page\":1,\"per_page\":6,\"total\":12,\"total_pages\":2,\"data\":[{\"id\":1,\"name\":\"cerulean\",\"year\":2000,\"color\":\"#98B2D1\",\"pantone_value\":\"15-4020\"},{\"id\":2,\"name\":\"fuchsia rose\",\"year\":2001,\"color\":\"#C74375\",\"pantone_value\":\"17-2031\"},{\"id\":3,\"name\":\"true red\",\"year\":2002,\"color\":\"#BF1932\",\"pantone_value\":\"19-1664\"},{\"id\":4,\"name\":\"aqua sky\",\"year\":2003,\"color\":\"#7BC4C4\",\"pantone_value\":\"14-4811\"},{\"id\":5,\"name\":\"tigerlily\",\"year\":2004,\"color\":\"#E2583E\",\"pantone_value\":\"17-1456\"},{\"id\":6,\"name\":\"blue turquoise\",\"year\":2005,\"color\":\"#53B0AE\",\"pantone_value\":\"15-5217\"}],\"support\":{\"url\":\"https:\/\/reqres.in\/#support-heading\",\"text\":\"To keep ReqRes free, contributions towards server costs are appreciated!\"}}","line":13}},{"name":"status 200","result":{"duration":15100,"status":"passed"},"match":{"location":"karate","arguments":[]},"keyword":"Then","line":14}],"tags":[{"name":"@tag1","line":10}]},{"line":7,"name":"","description":"","type":"background","keyword":"Background","steps":[{"name":"url 'https:\/\/reqres.in'","result":{"duration":128500,"status":"passed"},"match":{"location":"karate","arguments":[]},"keyword":"*","line":8,"doc_string":{"content_type":"","value":"18:45:22.697 skipping bootstrap configuration: could not find or read file: classpath:karate-config.js","line":8}},{"name":"header Content-Type = 'application\/json'","result":{"duration":98900,"status":"passed"},"match":{"location":"karate","arguments":[]},"keyword":"*","line":9}]},{"line":17,"name":"Single User","description":"","id":"single-user","type":"scenario","keyword":"Scenario","steps":[{"name":"path 'api\/users\/2'","result":{"duration":1387800,"status":"passed"},"match":{"location":"karate","arguments":[]},"keyword":"Given","line":18},{"name":"method GET","result":{"duration":128075599,"status":"passed"},"match":{"location":"karate","arguments":[]},"keyword":"When","line":19,"doc_string":{"content_type":"","value":"18:45:22.700 request:\n1 > GET https:\/\/reqres.in\/api\/users\/2\n1 > Accept-Encoding: gzip,deflate\n1 > Connection: Keep-Alive\n1 > Content-Type: application\/json\n1 > Host: reqres.in\n1 > User-Agent: Apache-HttpClient\/4.5.12 (Java\/1.8.0_291)\n\n18:45:22.827 response time in milliseconds: 122.62\n1 < 200\n1 < Access-Control-Allow-Origin: *\n1 < Age: 5651\n1 < CF-Cache-Status: HIT\n1 < CF-RAY: 65a16e02bf014ad4-HYD\n1 < Cache-Control: max-age=14400\n1 < Connection: keep-alive\n1 < Content-Type: application\/json; charset=utf-8\n1 < Date: Fri, 04 Jun 2021 13:15:23 GMT\n1 < Etag: W\/\"118-pbdwwFo9SKNhD3Lx5iHJyngpq00\"\n1 < Expect-CT: max-age=604800, report-uri=\"https:\/\/report-uri.cloudflare.com\/cdn-cgi\/beacon\/expect-ct\"\n1 < NEL: {\"report_to\":\"cf-nel\",\"max_age\":604800}\n1 < Report-To: {\"endpoints\":[{\"url\":\"https:\\\/\\\/a.nel.cloudflare.com\\\/report\\\/v2?s=3q9PC2ynHYJ1OW6EfkWs3n0WUUE90eOfDUMCZ0cRQpmv%2BMcFuYpSSFBlobXVlJb6xlh5DCI9jxhbfzvcnwHvB3LMeFaBJVMEr9Y90ozfU6C5VFF71k6a\"}],\"group\":\"cf-nel\",\"max_age\":604800}\n1 < Server: cloudflare\n1 < Transfer-Encoding: chunked\n1 < Vary: Accept-Encoding\n1 < Via: 1.1 vegur\n1 < X-Powered-By: Express\n1 < alt-svc: h3-27=\":443\"; ma=86400, h3-28=\":443\"; ma=86400, h3-29=\":443\"; ma=86400, h3=\":443\"; ma=86400\n1 < cf-request-id: 0a78c315af00004ad452a7b000000001\n{\"data\":{\"id\":2,\"email\":\"janet.weaver@reqres.in\",\"first_name\":\"Janet\",\"last_name\":\"Weaver\",\"avatar\":\"https:\/\/reqres.in\/img\/faces\/2-image.jpg\"},\"support\":{\"url\":\"https:\/\/reqres.in\/#support-heading\",\"text\":\"To keep ReqRes free, contributions towards server costs are appreciated!\"}}","line":19}},{"name":"assert responseStatus == 200 || responseStatus == 204","result":{"duration":6119200,"status":"passed"},"match":{"location":"karate","arguments":[]},"keyword":"Then","line":20}],"tags":[{"name":"@tag2","line":16}]}],"name":"src\/test\/java\/feature\/getcall.feature","description":"List of All GET Calls\nI want to use this template for my feature file","id":"list-of-all-get-calls","keyword":"Feature","uri":"src\/test\/java\/feature\/getcall.feature","tags":[{"name":"@tag","line":3}]}]